\relax 
\@writefile{toc}{\contentsline {section}{\numberline {\rensuji  {1}}材料}{\rensuji  {1}}}
\@writefile{toc}{\contentsline {section}{\numberline {\rensuji  {2}}器具}{\rensuji  {1}}}
\@writefile{toc}{\contentsline {section}{\numberline {\rensuji  {3}}作り方}{\rensuji  {1}}}
\@writefile{toc}{\contentsline {section}{\numberline {\rensuji  {4}}一言}{\rensuji  {1}}}
