[0] Config.pm:354> INFO - This is Biber 2.7 (beta)
[0] Config.pm:357> INFO - Logfile is 'report.tex.blg'
[25] biber:303> INFO - === 木  6月  8, 2017, 23:23:38
[71] Utils.pm:180> ERROR - Cannot find control file 'report.tex.bcf'! - did you pass the "backend=biber" option to BibLaTeX?
[71] Biber.pm:114> INFO - ERRORS: 1
