\boolfalse {citerequest}\boolfalse {citetracker}\boolfalse {pagetracker}\boolfalse {backtracker}\relax 
\defcounter {refsection}{0}\relax 
\contentsline {section}{\numberline {1}Clockにデータスイッチを使っ場合の動作の観測}{1}{section.1}
\defcounter {refsection}{0}\relax 
\contentsline {subsection}{\numberline {1.1}本来起こってほしい動作}{1}{subsection.1.1}
\defcounter {refsection}{0}\relax 
\contentsline {subsection}{\numberline {1.2}起きた問題}{2}{subsection.1.2}
